%YAML 1.1
%TAG !u! tag:unity3d.com,2011:
--- !u!1 &6681552959371515530
GameObject:
  m_ObjectHideFlags: 0
  m_CorrespondingSourceObject: {fileID: 0}
  m_PrefabInstance: {fileID: 0}
  m_PrefabAsset: {fileID: 0}
  serializedVersion: 6
  m_Component:
  - component: {fileID: 5259662596792372242}
  m_Layer: 0
  m_Name: deco plant
  m_TagString: Untagged
  m_Icon: {fileID: 0}
  m_NavMeshLayer: 0
  m_StaticEditorFlags: 2147483647
  m_IsActive: 1
--- !u!4 &5259662596792372242
Transform:
  m_ObjectHideFlags: 0
  m_CorrespondingSourceObject: {fileID: 0}
  m_PrefabInstance: {fileID: 0}
  m_PrefabAsset: {fileID: 0}
  m_GameObject: {fileID: 6681552959371515530}
  m_LocalRotation: {x: 0, y: 0, z: 0, w: 1}
  m_LocalPosition: {x: 0, y: 0, z: 0}
  m_LocalScale: {x: 1, y: 1, z: 1}
  m_ConstrainProportionsScale: 0
  m_Children:
  - {fileID: 7268839230004673130}
  m_Father: {fileID: 0}
  m_RootOrder: 0
  m_LocalEulerAnglesHint: {x: 0, y: 0, z: 0}
--- !u!1001 &7163718176401218945
PrefabInstance:
  m_ObjectHideFlags: 0
  serializedVersion: 2
  m_Modification:
    m_TransformParent: {fileID: 5259662596792372242}
    m_Modifications:
    - target: {fileID: -8679921383154817045, guid: f402c455ec637a04f961ba0ec817b99d, type: 3}
      propertyPath: m_RootOrder
      value: 0
      objectReference: {fileID: 0}
    - target: {fileID: -8679921383154817045, guid: f402c455ec637a04f961ba0ec817b99d, type: 3}
      propertyPath: m_LocalScale.x
      value: 15.875039
      objectReference: {fileID: 0}
    - target: {fileID: -8679921383154817045, guid: f402c455ec637a04f961ba0ec817b99d, type: 3}
      propertyPath: m_LocalScale.y
      value: 15.87504
      objectReference: {fileID: 0}
    - target: {fileID: -8679921383154817045, guid: f402c455ec637a04f961ba0ec817b99d, type: 3}
      propertyPath: m_LocalScale.z
      value: 15.875037
      objectReference: {fileID: 0}
    - target: {fileID: -8679921383154817045, guid: f402c455ec637a04f961ba0ec817b99d, type: 3}
      propertyPath: m_LocalPosition.x
      value: 0
      objectReference: {fileID: 0}
    - target: {fileID: -8679921383154817045, guid: f402c455ec637a04f961ba0ec817b99d, type: 3}
      propertyPath: m_LocalPosition.y
      value: 0
      objectReference: {fileID: 0}
    - target: {fileID: -8679921383154817045, guid: f402c455ec637a04f961ba0ec817b99d, type: 3}
      propertyPath: m_LocalPosition.z
      value: 0
      objectReference: {fileID: 0}
    - target: {fileID: -8679921383154817045, guid: f402c455ec637a04f961ba0ec817b99d, type: 3}
      propertyPath: m_LocalRotation.w
      value: 0.28293088
      objectReference: {fileID: 0}
    - target: {fileID: -8679921383154817045, guid: f402c455ec637a04f961ba0ec817b99d, type: 3}
      propertyPath: m_LocalRotation.x
      value: 0.039278124
      objectReference: {fileID: 0}
    - target: {fileID: -8679921383154817045, guid: f402c455ec637a04f961ba0ec817b99d, type: 3}
      propertyPath: m_LocalRotation.y
      value: 0.9574232
      objectReference: {fileID: 0}
    - target: {fileID: -8679921383154817045, guid: f402c455ec637a04f961ba0ec817b99d, type: 3}
      propertyPath: m_LocalRotation.z
      value: 0.041810695
      objectReference: {fileID: 0}
    - target: {fileID: -8679921383154817045, guid: f402c455ec637a04f961ba0ec817b99d, type: 3}
      propertyPath: m_LocalEulerAnglesHint.x
      value: -3.316
      objectReference: {fileID: 0}
    - target: {fileID: -8679921383154817045, guid: f402c455ec637a04f961ba0ec817b99d, type: 3}
      propertyPath: m_LocalEulerAnglesHint.y
      value: 146.909
      objectReference: {fileID: 0}
    - target: {fileID: -8679921383154817045, guid: f402c455ec637a04f961ba0ec817b99d, type: 3}
      propertyPath: m_LocalEulerAnglesHint.z
      value: 5.684
      objectReference: {fileID: 0}
    - target: {fileID: 919132149155446097, guid: f402c455ec637a04f961ba0ec817b99d, type: 3}
      propertyPath: m_Name
      value: deco plant
      objectReference: {fileID: 0}
    - target: {fileID: 919132149155446097, guid: f402c455ec637a04f961ba0ec817b99d, type: 3}
      propertyPath: m_StaticEditorFlags
      value: 2147483647
      objectReference: {fileID: 0}
    m_RemovedComponents: []
  m_SourcePrefab: {fileID: 100100000, guid: f402c455ec637a04f961ba0ec817b99d, type: 3}
--- !u!4 &7268839230004673130 stripped
Transform:
  m_CorrespondingSourceObject: {fileID: -8679921383154817045, guid: f402c455ec637a04f961ba0ec817b99d, type: 3}
  m_PrefabInstance: {fileID: 7163718176401218945}
  m_PrefabAsset: {fileID: 0}
